…
``` r
boot_trap_df %>% 
  mutate(
    models = map(.x = strap_sample, ~ lm(y ~ x, data = .x)),
    results = map(models, broom::tidy)
  )
```

    ## # A tibble: 1,000 × 4
    ##    strap_number strap_sample       models results         
    ##           <int> <list>             <list> <list>          
    ##  1            1 <tibble [250 × 3]> <lm>   <tibble [2 × 5]>
    ##  2            2 <tibble [250 × 3]> <lm>   <tibble [2 × 5]>
    ##  3            3 <tibble [250 × 3]> <lm>   <tibble [2 × 5]>
    ##  4            4 <tibble [250 × 3]> <lm>   <tibble [2 × 5]>
    ##  5            5 <tibble [250 × 3]> <lm>   <tibble [2 × 5]>
    ##  6            6 <tibble [250 × 3]> <lm>   <tibble [2 × 5]>
    ##  7            7 <tibble [250 × 3]> <lm>   <tibble [2 × 5]>
    ##  8            8 <tibble [250 × 3]> <lm>   <tibble [2 × 5]>
    ##  9            9 <tibble [250 × 3]> <lm>   <tibble [2 × 5]>
    ## 10           10 <tibble [250 × 3]> <lm>   <tibble [2 × 5]>
    ## # … with 990 more rows
…
## Use modelr

``` r
sim_df_nonconst %>% 
  bootstrap(n = 1000, id = "strap_number") %>% 
  mutate(
    models = map(.x = strap, ~ lm(y~ x, data = .x)),
    results = map(models, broom::tidy)
  )
```

    ## # A tibble: 1,000 × 4
    ##    strap                strap_number models results         
    ##    <list>               <chr>        <list> <list>          
    ##  1 <resample [250 x 3]> 0001         <lm>   <tibble [2 × 5]>
    ##  2 <resample [250 x 3]> 0002         <lm>   <tibble [2 × 5]>
    ##  3 <resample [250 x 3]> 0003         <lm>   <tibble [2 × 5]>
    ##  4 <resample [250 x 3]> 0004         <lm>   <tibble [2 × 5]>
    ##  5 <resample [250 x 3]> 0005         <lm>   <tibble [2 × 5]>
    ##  6 <resample [250 x 3]> 0006         <lm>   <tibble [2 × 5]>
    ##  7 <resample [250 x 3]> 0007         <lm>   <tibble [2 × 5]>
    ##  8 <resample [250 x 3]> 0008         <lm>   <tibble [2 × 5]>
    ##  9 <resample [250 x 3]> 0009         <lm>   <tibble [2 × 5]>
    ## 10 <resample [250 x 3]> 0010         <lm>   <tibble [2 × 5]>
    ## # … with 990 more rows
…
